com\grb\ui\App$2.class
com\grb\ui\App.class
com\grb\ui\App$3.class
com\grb\ui\Reference$4.class
com\grb\ui\AddReference.class
com\grb\ui\Reference$3.class
com\grb\ui\App$4.class
com\grb\ui\AddReference$2.class
com\grb\ui\ExportHTML.class
com\grb\ui\Reference$2.class
com\grb\ui\ExportHTML$1.class
com\grb\ui\App$5.class
com\grb\ui\App$1.class
com\grb\mainpackage\Main.class
com\grb\ui\AddReference$1.class
com\grb\ui\Reference$1.class
com\grb\ui\Reference.class
